{
    "dimension": 2,
    "variables": [
        "AbsEta",
        "Pt"
    ],
    "error_type": "absolute",
    "binning": {
        "x": [
            0,
            2.5
        ],
        "y": [
            25.0,
            30.0,
            35.0,
            40.0,
            45.0,
            50.0,
            55.0,
            60.0,
            65.0,
            70.0,
            75.0,
            80.0,
            85.0,
            90.0,
            95.0,
            100.0,
            105.0,
            110.0,
            115.0,
            120.0,
            125.0,
            130.0,
            135.0,
            140.0,
            145.0,
            150.0,
            155.0,
            160.0,
            165.0,
            170.0,
            175.0,
            180.0,
            185.0,
            190.0,
            195.0,
            200.0,
            205.0,
            210.0,
            215.0,
            220.0,
            225.0,
            230.0,
            235.0,
            240.0,
            245.0,
            250.0,
            255.0,
            260.0,
            265.0,
            270.0,
            275.0,
            280.0,
            285.0,
            290.0,
            295.0,
            300.0
        ]
    },
    "data": [
        {
            "bin": [
                0,
                2.5
            ],
            "values": [
                {
                    "bin": [
                        25.0,
                        30.0
                    ],
                    "value": 0.1356016844511032,
                    "error_low": 0.0067413293780488335,
                    "error_high": 0.0067413293780488335
                },
                {
                    "bin": [
                        30.0,
                        35.0
                    ],
                    "value": 0.14510492980480194,
                    "error_low": 0.004626933280247618,
                    "error_high": 0.004626933280247618
                },
                {
                    "bin": [
                        35.0,
                        40.0
                    ],
                    "value": 0.14332479238510132,
                    "error_low": 0.0034089861020574646,
                    "error_high": 0.0034089861020574646
                },
                {
                    "bin": [
                        40.0,
                        45.0
                    ],
                    "value": 0.14000855386257172,
                    "error_low": 0.0024917902439821984,
                    "error_high": 0.0024917902439821984
                },
                {
                    "bin": [
                        45.0,
                        50.0
                    ],
                    "value": 0.14229059219360352,
                    "error_low": 0.001958939821345417,
                    "error_high": 0.001958939821345417
                },
                {
                    "bin": [
                        50.0,
                        55.0
                    ],
                    "value": 0.1393859088420868,
                    "error_low": 0.0018928865332767828,
                    "error_high": 0.0018928865332767828
                },
                {
                    "bin": [
                        55.0,
                        60.0
                    ],
                    "value": 0.13847367465496063,
                    "error_low": 0.001992704785227164,
                    "error_high": 0.001992704785227164
                },
                {
                    "bin": [
                        60.0,
                        65.0
                    ],
                    "value": 0.13523316383361816,
                    "error_low": 0.0021241906548561647,
                    "error_high": 0.0021241906548561647
                },
                {
                    "bin": [
                        65.0,
                        70.0
                    ],
                    "value": 0.13846150040626526,
                    "error_low": 0.002307639093428481,
                    "error_high": 0.002307639093428481
                },
                {
                    "bin": [
                        70.0,
                        75.0
                    ],
                    "value": 0.14357849955558777,
                    "error_low": 0.0025877245854296167,
                    "error_high": 0.0025877245854296167
                },
                {
                    "bin": [
                        75.0,
                        80.0
                    ],
                    "value": 0.1426999866962433,
                    "error_low": 0.0028654497499995242,
                    "error_high": 0.0028654497499995242
                },
                {
                    "bin": [
                        80.0,
                        85.0
                    ],
                    "value": 0.14188946783542633,
                    "error_low": 0.0031297314285203383,
                    "error_high": 0.0031297314285203383
                },
                {
                    "bin": [
                        85.0,
                        90.0
                    ],
                    "value": 0.14093893766403198,
                    "error_low": 0.0034384337389824315,
                    "error_high": 0.0034384337389824315
                },
                {
                    "bin": [
                        90.0,
                        95.0
                    ],
                    "value": 0.14346113801002502,
                    "error_low": 0.0037969324316217386,
                    "error_high": 0.0037969324316217386
                },
                {
                    "bin": [
                        95.0,
                        100.0
                    ],
                    "value": 0.13802218437194824,
                    "error_low": 0.004082385301932746,
                    "error_high": 0.004082385301932746
                },
                {
                    "bin": [
                        100.0,
                        105.0
                    ],
                    "value": 0.13243412971496582,
                    "error_low": 0.004473590295400235,
                    "error_high": 0.004473590295400235
                },
                {
                    "bin": [
                        105.0,
                        110.0
                    ],
                    "value": 0.14140258729457855,
                    "error_low": 0.004975290698814459,
                    "error_high": 0.004975290698814459
                },
                {
                    "bin": [
                        110.0,
                        115.0
                    ],
                    "value": 0.14086279273033142,
                    "error_low": 0.005457679544890884,
                    "error_high": 0.005457679544890884
                },
                {
                    "bin": [
                        115.0,
                        120.0
                    ],
                    "value": 0.14605621993541718,
                    "error_low": 0.006123334277354705,
                    "error_high": 0.006123334277354705
                },
                {
                    "bin": [
                        120.0,
                        125.0
                    ],
                    "value": 0.13991518318653107,
                    "error_low": 0.006631455443599675,
                    "error_high": 0.006631455443599675
                },
                {
                    "bin": [
                        125.0,
                        130.0
                    ],
                    "value": 0.13877427577972412,
                    "error_low": 0.0070880196222913435,
                    "error_high": 0.0070880196222913435
                },
                {
                    "bin": [
                        130.0,
                        135.0
                    ],
                    "value": 0.14387895166873932,
                    "error_low": 0.007746231513519143,
                    "error_high": 0.007746231513519143
                },
                {
                    "bin": [
                        135.0,
                        140.0
                    ],
                    "value": 0.14724679291248322,
                    "error_low": 0.008484099721934635,
                    "error_high": 0.008484099721934635
                },
                {
                    "bin": [
                        140.0,
                        145.0
                    ],
                    "value": 0.14187519252300262,
                    "error_low": 0.008939522947721814,
                    "error_high": 0.008939522947721814
                },
                {
                    "bin": [
                        145.0,
                        150.0
                    ],
                    "value": 0.1253044754266739,
                    "error_low": 0.009331423911631793,
                    "error_high": 0.009331423911631793
                },
                {
                    "bin": [
                        150.0,
                        155.0
                    ],
                    "value": 0.13876254856586456,
                    "error_low": 0.009661208014383705,
                    "error_high": 0.009661208014383705
                },
                {
                    "bin": [
                        155.0,
                        160.0
                    ],
                    "value": 0.14343367516994476,
                    "error_low": 0.011030559453530996,
                    "error_high": 0.011030559453530996
                },
                {
                    "bin": [
                        160.0,
                        165.0
                    ],
                    "value": 0.15068407356739044,
                    "error_low": 0.012290291803254201,
                    "error_high": 0.012290291803254201
                },
                {
                    "bin": [
                        165.0,
                        170.0
                    ],
                    "value": 0.1353120058774948,
                    "error_low": 0.012526190136286948,
                    "error_high": 0.012526190136286948
                },
                {
                    "bin": [
                        170.0,
                        175.0
                    ],
                    "value": 0.12403610348701477,
                    "error_low": 0.012508129600164024,
                    "error_high": 0.012508129600164024
                },
                {
                    "bin": [
                        175.0,
                        180.0
                    ],
                    "value": 0.10656915605068207,
                    "error_low": 0.013038980857671264,
                    "error_high": 0.013038980857671264
                },
                {
                    "bin": [
                        180.0,
                        185.0
                    ],
                    "value": 0.11034153401851654,
                    "error_low": 0.01462002420182764,
                    "error_high": 0.01462002420182764
                },
                {
                    "bin": [
                        185.0,
                        190.0
                    ],
                    "value": 0.14070944488048553,
                    "error_low": 0.015855125487980737,
                    "error_high": 0.015855125487980737
                },
                {
                    "bin": [
                        190.0,
                        195.0
                    ],
                    "value": 0.14622199535369873,
                    "error_low": 0.016279734350919225,
                    "error_high": 0.016279734350919225
                },
                {
                    "bin": [
                        195.0,
                        200.0
                    ],
                    "value": 0.14476856589317322,
                    "error_low": 0.01807203229276318,
                    "error_high": 0.01807203229276318
                },
                {
                    "bin": [
                        200.0,
                        205.0
                    ],
                    "value": 0.14604148268699646,
                    "error_low": 0.019368986269012015,
                    "error_high": 0.019368986269012015
                },
                {
                    "bin": [
                        205.0,
                        210.0
                    ],
                    "value": 0.11559268832206726,
                    "error_low": 0.018356042862720762,
                    "error_high": 0.018356042862720762
                },
                {
                    "bin": [
                        210.0,
                        215.0
                    ],
                    "value": 0.1286168396472931,
                    "error_low": 0.020457060876647355,
                    "error_high": 0.020457060876647355
                },
                {
                    "bin": [
                        215.0,
                        220.0
                    ],
                    "value": 0.13283640146255493,
                    "error_low": 0.02132042195093365,
                    "error_high": 0.02132042195093365
                },
                {
                    "bin": [
                        220.0,
                        225.0
                    ],
                    "value": 0.11216656118631363,
                    "error_low": 0.018959039619180936,
                    "error_high": 0.018959039619180936
                },
                {
                    "bin": [
                        225.0,
                        230.0
                    ],
                    "value": 0.12443964928388596,
                    "error_low": 0.02306213612500076,
                    "error_high": 0.02306213612500076
                },
                {
                    "bin": [
                        230.0,
                        235.0
                    ],
                    "value": 0.16859818994998932,
                    "error_low": 0.025096479449089673,
                    "error_high": 0.025096479449089673
                },
                {
                    "bin": [
                        235.0,
                        240.0
                    ],
                    "value": 0.16868126392364502,
                    "error_low": 0.02634619187122232,
                    "error_high": 0.02634619187122232
                },
                {
                    "bin": [
                        240.0,
                        245.0
                    ],
                    "value": 0.17407308518886566,
                    "error_low": 0.031212013224176004,
                    "error_high": 0.031212013224176004
                },
                {
                    "bin": [
                        245.0,
                        250.0
                    ],
                    "value": 0.11842171102762222,
                    "error_low": 0.02524387841868166,
                    "error_high": 0.02524387841868166
                },
                {
                    "bin": [
                        250.0,
                        255.0
                    ],
                    "value": 0.11941526085138321,
                    "error_low": 0.03151036823377368,
                    "error_high": 0.03151036823377368
                },
                {
                    "bin": [
                        255.0,
                        260.0
                    ],
                    "value": 0.1565612405538559,
                    "error_low": 0.028679492618885603,
                    "error_high": 0.028679492618885603
                },
                {
                    "bin": [
                        260.0,
                        265.0
                    ],
                    "value": 0.09192248433828354,
                    "error_low": 0.026702265635044353,
                    "error_high": 0.026702265635044353
                },
                {
                    "bin": [
                        265.0,
                        270.0
                    ],
                    "value": 0.1711166948080063,
                    "error_low": 0.04085320219274148,
                    "error_high": 0.04085320219274148
                },
                {
                    "bin": [
                        270.0,
                        275.0
                    ],
                    "value": 0.12867915630340576,
                    "error_low": 0.030611396225042126,
                    "error_high": 0.030611396225042126
                },
                {
                    "bin": [
                        275.0,
                        280.0
                    ],
                    "value": 0.15163558721542358,
                    "error_low": 0.04742895937194792,
                    "error_high": 0.04742895937194792
                },
                {
                    "bin": [
                        280.0,
                        285.0
                    ],
                    "value": 0.16347269713878632,
                    "error_low": 0.04248038018491684,
                    "error_high": 0.04248038018491684
                },
                {
                    "bin": [
                        285.0,
                        290.0
                    ],
                    "value": 0.14156556129455566,
                    "error_low": 0.04361298368280385,
                    "error_high": 0.04361298368280385
                },
                {
                    "bin": [
                        290.0,
                        295.0
                    ],
                    "value": 0.23019757866859436,
                    "error_low": 0.05631167236181992,
                    "error_high": 0.05631167236181992
                },
                {
                    "bin": [
                        295.0,
                        300.0
                    ],
                    "value": 0.0813840925693512,
                    "error_low": 0.03499498816783004,
                    "error_high": 0.03499498816783004
                }
            ]
        }
    ]
}