{
  "dimension": 2,
  "variables": [
    "AbsEta",
    "Pt"
  ],
  "binning": {
    "x": [
      0.0,
      0.9,
      1.2,
      2.1,
      2.5
    ],
    "y": [
      10.0,
      20.0,
      25.0,
      30.0,
      35.0,
      40.0,
      45.0,
      60.0,
      80.0
    ]
  },
  "data": [
    {
      "bin": [
        0.0,
        0.9
      ],
      "values": [
        {
          "bin": [
            10.0,
            20.0
          ],
          "value": 0.9699570536613464,
          "error_low": 0.023823608702976968,
          "error_high": 0.023823608702976968
        },
        {
          "bin": [
            20.0,
            25.0
          ],
          "value": 0.980512797832489,
          "error_low": 0.03389274182945286,
          "error_high": 0.03389274182945286
        },
        {
          "bin": [
            25.0,
            30.0
          ],
          "value": 0.9857867956161499,
          "error_low": 0.019448978741794958,
          "error_high": 0.019448978741794958
        },
        {
          "bin": [
            30.0,
            35.0
          ],
          "value": 0.991919219493866,
          "error_low": 0.011248008813798034,
          "error_high": 0.011248008813798034
        },
        {
          "bin": [
            35.0,
            40.0
          ],
          "value": 0.9909273982048035,
          "error_low": 0.0017460189592428204,
          "error_high": 0.0017460189592428204
        },
        {
          "bin": [
            40.0,
            45.0
          ],
          "value": 0.9909456968307495,
          "error_low": 0.0014227500627495926,
          "error_high": 0.0014227500627495926
        },
        {
          "bin": [
            45.0,
            60.0
          ],
          "value": 0.9929648041725159,
          "error_low": 0.0014213201631890402,
          "error_high": 0.0014213201631890402
        },
        {
          "bin": [
            60.0,
            80.0
          ],
          "value": 0.9929648041725159,
          "error_low": 0.001740754580471234,
          "error_high": 0.001740754580471234
        }
      ]
    },
    {
      "bin": [
        0.9,
        1.2
      ],
      "values": [
        {
          "bin": [
            10.0,
            20.0
          ],
          "value": 1.0348963737487793,
          "error_low": 0.02664512916656625,
          "error_high": 0.02664512916656625
        },
        {
          "bin": [
            20.0,
            25.0
          ],
          "value": 0.961776852607727,
          "error_low": 0.025262436488920403,
          "error_high": 0.025262436488920403
        },
        {
          "bin": [
            25.0,
            30.0
          ],
          "value": 0.9816513657569885,
          "error_low": 0.027238306250534854,
          "error_high": 0.027238306250534854
        },
        {
          "bin": [
            30.0,
            35.0
          ],
          "value": 0.9847870469093323,
          "error_low": 0.013606904528396298,
          "error_high": 0.013606904528396298
        },
        {
          "bin": [
            35.0,
            40.0
          ],
          "value": 0.9838220477104187,
          "error_low": 0.0017513152756004832,
          "error_high": 0.0017513152756004832
        },
        {
          "bin": [
            40.0,
            45.0
          ],
          "value": 0.9868819117546082,
          "error_low": 0.0017477808350846397,
          "error_high": 0.0017477808350846397
        },
        {
          "bin": [
            45.0,
            60.0
          ],
          "value": 0.9909273982048035,
          "error_low": 0.0017460189592428204,
          "error_high": 0.0017460189592428204
        },
        {
          "bin": [
            60.0,
            80.0
          ],
          "value": 0.9707955718040466,
          "error_low": 0.024252959876721665,
          "error_high": 0.024252959876721665
        }
      ]
    },
    {
      "bin": [
        1.2,
        2.1
      ],
      "values": [
        {
          "bin": [
            10.0,
            20.0
          ],
          "value": 1.0134228467941284,
          "error_low": 0.01685292972407089,
          "error_high": 0.01685292972407089
        },
        {
          "bin": [
            20.0,
            25.0
          ],
          "value": 0.9507853388786316,
          "error_low": 0.023670480744413247,
          "error_high": 0.023670480744413247
        },
        {
          "bin": [
            25.0,
            30.0
          ],
          "value": 0.968008279800415,
          "error_low": 0.01714473449518686,
          "error_high": 0.01714473449518686
        },
        {
          "bin": [
            30.0,
            35.0
          ],
          "value": 0.9743589758872986,
          "error_low": 0.023433148018042655,
          "error_high": 0.023433148018042655
        },
        {
          "bin": [
            35.0,
            40.0
          ],
          "value": 0.9703476428985596,
          "error_low": 0.004338078412187412,
          "error_high": 0.004338078412187412
        },
        {
          "bin": [
            40.0,
            45.0
          ],
          "value": 0.9755101799964905,
          "error_low": 0.0014430750636460154,
          "error_high": 0.0014430750636460154
        },
        {
          "bin": [
            45.0,
            60.0
          ],
          "value": 0.9796541333198547,
          "error_low": 0.0017620048907109641,
          "error_high": 0.0017620048907109641
        },
        {
          "bin": [
            60.0,
            80.0
          ],
          "value": 0.9816886782646179,
          "error_low": 0.004434281733001706,
          "error_high": 0.004434281733001706
        }
      ]
    },
    {
      "bin": [
        2.1,
        2.5
      ],
      "values": [
        {
          "bin": [
            10.0,
            20.0
          ],
          "value": 0.9383155107498169,
          "error_low": 0.019955639194852593,
          "error_high": 0.019955639194852593
        },
        {
          "bin": [
            20.0,
            25.0
          ],
          "value": 0.9318181872367859,
          "error_low": 0.01626980127529537,
          "error_high": 0.01626980127529537
        },
        {
          "bin": [
            25.0,
            30.0
          ],
          "value": 0.948772668838501,
          "error_low": 0.0186994828900056,
          "error_high": 0.0186994828900056
        },
        {
          "bin": [
            30.0,
            35.0
          ],
          "value": 0.9577613472938538,
          "error_low": 0.02036673867157965,
          "error_high": 0.02036673867157965
        },
        {
          "bin": [
            35.0,
            40.0
          ],
          "value": 0.9516806602478027,
          "error_low": 0.004068259817444769,
          "error_high": 0.004068259817444769
        },
        {
          "bin": [
            40.0,
            45.0
          ],
          "value": 0.9528301954269409,
          "error_low": 0.0018155668842441068,
          "error_high": 0.0018155668842441068
        },
        {
          "bin": [
            45.0,
            60.0
          ],
          "value": 0.9592902064323425,
          "error_low": 0.006518787054695619,
          "error_high": 0.006518787054695619
        },
        {
          "bin": [
            60.0,
            80.0
          ],
          "value": 0.9760915040969849,
          "error_low": 0.012077910643058354,
          "error_high": 0.012077910643058354
        }
      ]
    }
  ],
  "error_type": "absolute"
}