{
  "dimension": 2,
  "variables": [
    "AbsEta",
    "Pt"
  ],
  "binning": {
    "x": [
      0.0,
      0.9,
      1.2,
      2.1,
      2.5
    ],
    "y": [
      10.0,
      15.0,
      20.0,
      25.0,
      30.0,
      35.0,
      40.0,
      45.0,
      60.0,
      80.0
    ]
  },
  "data": [
    {
      "bin": [
        0.0,
        0.9
      ],
      "values": [
        {
          "bin": [
            10.0,
            15.0
          ],
          "value": 0.993704080581665,
          "error_low": 0.002570293539121908,
          "error_high": 0.002570293539121908
        },
        {
          "bin": [
            15.0,
            20.0
          ],
          "value": 0.9916666746139526,
          "error_low": 0.002083333333333334,
          "error_high": 0.002083333333333334
        },
        {
          "bin": [
            20.0,
            25.0
          ],
          "value": 0.9906832575798035,
          "error_low": 0.003273579358352362,
          "error_high": 0.003273579358352362
        },
        {
          "bin": [
            25.0,
            30.0
          ],
          "value": 0.9897645711898804,
          "error_low": 0.0044615137600211635,
          "error_high": 0.0044615137600211635
        },
        {
          "bin": [
            30.0,
            35.0
          ],
          "value": 0.9918781518936157,
          "error_low": 0.0017584272158059674,
          "error_high": 0.0017584272158059674
        },
        {
          "bin": [
            35.0,
            40.0
          ],
          "value": 0.991910994052887,
          "error_low": 0.0014299429346542923,
          "error_high": 0.0014299429346542923
        },
        {
          "bin": [
            40.0,
            45.0
          ],
          "value": 0.9908906817436218,
          "error_low": 0.003200685890858686,
          "error_high": 0.003200685890858686
        },
        {
          "bin": [
            45.0,
            60.0
          ],
          "value": 0.9898785352706909,
          "error_low": 0.001431390245316898,
          "error_high": 0.001431390245316898
        },
        {
          "bin": [
            60.0,
            80.0
          ],
          "value": 0.9878419637680054,
          "error_low": 0.0035097280801800984,
          "error_high": 0.0035097280801800984
        }
      ]
    },
    {
      "bin": [
        0.9,
        1.2
      ],
      "values": [
        {
          "bin": [
            10.0,
            15.0
          ],
          "value": 1.008359432220459,
          "error_low": 0.0036197509040101937,
          "error_high": 0.0036197509040101937
        },
        {
          "bin": [
            15.0,
            20.0
          ],
          "value": 0.9979209899902344,
          "error_low": 0.002546247133870248,
          "error_high": 0.002546247133870248
        },
        {
          "bin": [
            20.0,
            25.0
          ],
          "value": 0.9958634972572327,
          "error_low": 0.005373477169293315,
          "error_high": 0.005373477169293315
        },
        {
          "bin": [
            25.0,
            30.0
          ],
          "value": 0.9918116927146912,
          "error_low": 0.002708036142338375,
          "error_high": 0.002708036142338375
        },
        {
          "bin": [
            30.0,
            35.0
          ],
          "value": 0.9918533563613892,
          "error_low": 0.0017637991930436639,
          "error_high": 0.0017637991930436639
        },
        {
          "bin": [
            35.0,
            40.0
          ],
          "value": 0.9918699264526367,
          "error_low": 0.0014372089048507064,
          "error_high": 0.0014372089048507064
        },
        {
          "bin": [
            40.0,
            45.0
          ],
          "value": 0.9929006099700928,
          "error_low": 0.0014342936738063845,
          "error_high": 0.0014342936738063845
        },
        {
          "bin": [
            45.0,
            60.0
          ],
          "value": 0.9908814430236816,
          "error_low": 0.00143284048872654,
          "error_high": 0.00143284048872654
        },
        {
          "bin": [
            60.0,
            80.0
          ],
          "value": 0.9918864369392395,
          "error_low": 0.0020283975659229217,
          "error_high": 0.0020283975659229217
        }
      ]
    },
    {
      "bin": [
        1.2,
        2.1
      ],
      "values": [
        {
          "bin": [
            10.0,
            15.0
          ],
          "value": 1.0177267789840698,
          "error_low": 0.003128258602711159,
          "error_high": 0.003128258602711159
        },
        {
          "bin": [
            15.0,
            20.0
          ],
          "value": 1.0104931592941284,
          "error_low": 0.0018174719911530724,
          "error_high": 0.0018174719911530724
        },
        {
          "bin": [
            20.0,
            25.0
          ],
          "value": 1.0010449886322021,
          "error_low": 0.001809875452005097,
          "error_high": 0.001809875452005097
        },
        {
          "bin": [
            25.0,
            30.0
          ],
          "value": 0.9886714816093445,
          "error_low": 0.0027247696303445857,
          "error_high": 0.0027247696303445857
        },
        {
          "bin": [
            30.0,
            35.0
          ],
          "value": 0.9989816546440125,
          "error_low": 0.003220242016464747,
          "error_high": 0.003220242016464747
        },
        {
          "bin": [
            35.0,
            40.0
          ],
          "value": 0.9979757070541382,
          "error_low": 0.001431390245316898,
          "error_high": 0.001431390245316898
        },
        {
          "bin": [
            40.0,
            45.0
          ],
          "value": 0.9989888668060303,
          "error_low": 0.0014299429346542923,
          "error_high": 0.0014299429346542923
        },
        {
          "bin": [
            45.0,
            60.0
          ],
          "value": 0.9979798197746277,
          "error_low": 0.0014284985478516111,
          "error_high": 0.0014284985478516111
        },
        {
          "bin": [
            60.0,
            80.0
          ],
          "value": 0.9979757070541382,
          "error_low": 0.0020242914979757094,
          "error_high": 0.0020242914979757094
        }
      ]
    },
    {
      "bin": [
        2.1,
        2.5
      ],
      "values": [
        {
          "bin": [
            10.0,
            15.0
          ],
          "value": 1.005081295967102,
          "error_low": 0.0014372089048507064,
          "error_high": 0.0014372089048507064
        },
        {
          "bin": [
            15.0,
            20.0
          ],
          "value": 1.005081295967102,
          "error_low": 0.0014372089048507064,
          "error_high": 0.0014372089048507064
        },
        {
          "bin": [
            20.0,
            25.0
          ],
          "value": 1.0071138143539429,
          "error_low": 0.002688771657585968,
          "error_high": 0.002688771657585968
        },
        {
          "bin": [
            25.0,
            30.0
          ],
          "value": 1.006079077720642,
          "error_low": 0.00248175252561619,
          "error_high": 0.00248175252561619
        },
        {
          "bin": [
            30.0,
            35.0
          ],
          "value": 1.0030272006988525,
          "error_low": 0.0017477808350846397,
          "error_high": 0.0017477808350846397
        },
        {
          "bin": [
            35.0,
            40.0
          ],
          "value": 1.0030211210250854,
          "error_low": 0.0014241828422689778,
          "error_high": 0.0014241828422689778
        },
        {
          "bin": [
            40.0,
            45.0
          ],
          "value": 1.0030211210250854,
          "error_low": 0.0014241828422689778,
          "error_high": 0.0014241828422689778
        },
        {
          "bin": [
            45.0,
            60.0
          ],
          "value": 1.0040322542190552,
          "error_low": 0.001425618510456749,
          "error_high": 0.001425618510456749
        },
        {
          "bin": [
            60.0,
            80.0
          ],
          "value": 1.0060728788375854,
          "error_low": 0.001431390245316898,
          "error_high": 0.001431390245316898
        }
      ]
    }
  ],
  "error_type": "absolute"
}