{
  "dimension": 2,
  "variables": [
    "AbsEta",
    "Pt"
  ],
  "binning": {
    "x": [
      0.0,
      0.9,
      1.2,
      2.1,
      2.5
    ],
    "y": [
      10.0,
      15.0,
      20.0,
      25.0,
      30.0,
      35.0,
      40.0,
      45.0,
      60.0,
      80.0
    ]
  },
  "data": [
    {
      "bin": [
        0.0,
        0.9
      ],
      "values": [
        {
          "bin": [
            10.0,
            15.0
          ],
          "value": 0.7529411911964417,
          "error_low": 0.021408793556482286,
          "error_high": 0.021408793556482286
        },
        {
          "bin": [
            15.0,
            20.0
          ],
          "value": 0.8236659169197083,
          "error_low": 0.023873446371131868,
          "error_high": 0.023873446371131868
        },
        {
          "bin": [
            20.0,
            25.0
          ],
          "value": 0.8418181538581848,
          "error_low": 0.024399577714149467,
          "error_high": 0.024399577714149467
        },
        {
          "bin": [
            25.0,
            30.0
          ],
          "value": 0.8485856652259827,
          "error_low": 0.024595729838920333,
          "error_high": 0.024595729838920333
        },
        {
          "bin": [
            30.0,
            35.0
          ],
          "value": 0.8559738397598267,
          "error_low": 0.03602619280283237,
          "error_high": 0.03602619280283237
        },
        {
          "bin": [
            35.0,
            40.0
          ],
          "value": 0.8761904835700989,
          "error_low": 0.036877070100600484,
          "error_high": 0.036877070100600484
        },
        {
          "bin": [
            40.0,
            45.0
          ],
          "value": 0.8767123222351074,
          "error_low": 0.03689903322550492,
          "error_high": 0.03689903322550492
        },
        {
          "bin": [
            45.0,
            60.0
          ],
          "value": 0.8855869174003601,
          "error_low": 0.0251803828939402,
          "error_high": 0.0251803828939402
        },
        {
          "bin": [
            60.0,
            80.0
          ],
          "value": 0.8916184902191162,
          "error_low": 0.025351881941684473,
          "error_high": 0.025351881941684473
        }
      ]
    },
    {
      "bin": [
        0.9,
        1.2
      ],
      "values": [
        {
          "bin": [
            10.0,
            15.0
          ],
          "value": 0.6549295783042908,
          "error_low": 0.023977652903361735,
          "error_high": 0.023977652903361735
        },
        {
          "bin": [
            15.0,
            20.0
          ],
          "value": 0.7935656905174255,
          "error_low": 0.029053265135023043,
          "error_high": 0.029053265135023043
        },
        {
          "bin": [
            20.0,
            25.0
          ],
          "value": 0.8077669739723206,
          "error_low": 0.029573188889795876,
          "error_high": 0.029573188889795876
        },
        {
          "bin": [
            25.0,
            30.0
          ],
          "value": 0.8299319744110107,
          "error_low": 0.030384672604576002,
          "error_high": 0.030384672604576002
        },
        {
          "bin": [
            30.0,
            35.0
          ],
          "value": 0.8289473652839661,
          "error_low": 0.034888703623815576,
          "error_high": 0.034888703623815576
        },
        {
          "bin": [
            35.0,
            40.0
          ],
          "value": 0.8421052694320679,
          "error_low": 0.035442492968421835,
          "error_high": 0.035442492968421835
        },
        {
          "bin": [
            40.0,
            45.0
          ],
          "value": 0.854938268661499,
          "error_low": 0.03598260772777928,
          "error_high": 0.03598260772777928
        },
        {
          "bin": [
            45.0,
            60.0
          ],
          "value": 0.8650306463241577,
          "error_low": 0.03166967148137334,
          "error_high": 0.03166967148137334
        },
        {
          "bin": [
            60.0,
            80.0
          ],
          "value": 0.8589147329330444,
          "error_low": 0.031445761532369665,
          "error_high": 0.031445761532369665
        }
      ]
    },
    {
      "bin": [
        1.2,
        2.1
      ],
      "values": [
        {
          "bin": [
            10.0,
            15.0
          ],
          "value": 0.5322580933570862,
          "error_low": 0.01423087259267708,
          "error_high": 0.01423087259267708
        },
        {
          "bin": [
            15.0,
            20.0
          ],
          "value": 0.654618501663208,
          "error_low": 0.01897371175858753,
          "error_high": 0.01897371175858753
        },
        {
          "bin": [
            20.0,
            25.0
          ],
          "value": 0.6820513010025024,
          "error_low": 0.019768834453825268,
          "error_high": 0.019768834453825268
        },
        {
          "bin": [
            25.0,
            30.0
          ],
          "value": 0.7247899174690247,
          "error_low": 0.021007586777104126,
          "error_high": 0.021007586777104126
        },
        {
          "bin": [
            30.0,
            35.0
          ],
          "value": 0.7281553149223328,
          "error_low": 0.03064657183116659,
          "error_high": 0.03064657183116659
        },
        {
          "bin": [
            35.0,
            40.0
          ],
          "value": 0.7564102411270142,
          "error_low": 0.03183576403751409,
          "error_high": 0.03183576403751409
        },
        {
          "bin": [
            40.0,
            45.0
          ],
          "value": 0.7804459929466248,
          "error_low": 0.032847379800744925,
          "error_high": 0.032847379800744925
        },
        {
          "bin": [
            45.0,
            60.0
          ],
          "value": 0.8099173307418823,
          "error_low": 0.01821355327118379,
          "error_high": 0.01821355327118379
        },
        {
          "bin": [
            60.0,
            80.0
          ],
          "value": 0.8285256624221802,
          "error_low": 0.02254920159844942,
          "error_high": 0.02254920159844942
        }
      ]
    },
    {
      "bin": [
        2.1,
        2.5
      ],
      "values": [
        {
          "bin": [
            10.0,
            15.0
          ],
          "value": 0.6470588445663452,
          "error_low": 0.017300276110241875,
          "error_high": 0.017300276110241875
        },
        {
          "bin": [
            15.0,
            20.0
          ],
          "value": 0.5747126340866089,
          "error_low": 0.016657689685630195,
          "error_high": 0.016657689685630195
        },
        {
          "bin": [
            20.0,
            25.0
          ],
          "value": 0.6421052813529968,
          "error_low": 0.018611023819376515,
          "error_high": 0.018611023819376515
        },
        {
          "bin": [
            25.0,
            30.0
          ],
          "value": 0.6631016135215759,
          "error_low": 0.01921958950082614,
          "error_high": 0.01921958950082614
        },
        {
          "bin": [
            30.0,
            35.0
          ],
          "value": 0.6666666865348816,
          "error_low": 0.028058640893826814,
          "error_high": 0.028058640893826814
        },
        {
          "bin": [
            35.0,
            40.0
          ],
          "value": 0.6965065598487854,
          "error_low": 0.029314540290846236,
          "error_high": 0.029314540290846236
        },
        {
          "bin": [
            40.0,
            45.0
          ],
          "value": 0.7351129651069641,
          "error_low": 0.030939405134432718,
          "error_high": 0.030939405134432718
        },
        {
          "bin": [
            45.0,
            60.0
          ],
          "value": 0.7445972561836243,
          "error_low": 0.01443494319367633,
          "error_high": 0.01443494319367633
        },
        {
          "bin": [
            60.0,
            80.0
          ],
          "value": 0.7610294222831726,
          "error_low": 0.020712220084102118,
          "error_high": 0.020712220084102118
        }
      ]
    }
  ],
  "error_type": "absolute"
}